{
  "name": "freeones",
  "version": "0.12.1",
  "authors": ["boi123212321", "john4valor", "pizzajohnny", "leadwolf"],
  "description": "Scrape actress data from freeones.com",
  "events": ["actorCreated", "actorCustom"],
  "arguments": [
    {
      "name": "dry",
      "type": "Boolean",
      "required": false,
      "default": false,
      "description": "Whether to commit data changes"
    },
    {
      "name": "whitelist",
      "type": "String[]",
      "required": false,
      "default": [],
      "description": "Array of data fields to pick (possible values: 'nationality', 'zodiac', 'aliases', 'height', 'weight', 'avatar', 'bornOn', 'labels', 'hair color', 'eye color', 'ethnicity', 'birthplace', 'measurements', 'tattoos', 'piercings', 'career')"
    },
    {
      "name": "blacklist",
      "type": "String[]",
      "required": false,
      "default": [],
      "description": "Array of data fields to omit (for values see whitelist)"
    },
    {
      "name": "searchResultsSort",
      "type": "String",
      "required": false,
      "default": "relevance",
      "description": "Specify the search result sort order key to use. Advanced setting: use only if you know what you are doing. Possible values are 'relevance', 'rank.currentRank', 'followerCount', 'profileCompleted' or 'views'"
    },
    {
      "name": "useImperial",
      "type": "Boolean",
      "required": false,
      "default": false,
      "description": "Use imperial units for height and weight"
    },
    {
      "name": "useAvatarAsThumbnail",
      "type": "Boolean",
      "required": false,
      "default": false,
      "description": "Use the discovered Actor Avatar as the Actor Thumbnail image"
    },
    {
      "name": "piercingsType",
      "type": "'string' | 'array'",
      "required": false,
      "default": "string",
      "description": "How to return the piercings. Use 'array' if your custom field is a select or multi select"
    },
    {
      "name": "tattoosType",
      "type": "'string' | 'array'",
      "required": false,
      "default": "string",
      "description": "How to return the tattoos. Use 'array' if your custom field is a select or multi select"
    }
  ]
}
